<svg version="1.1" baseProfile="tiny" id="Capa_1" xmlns="http://www.w3.org/2000/svg" xmlns:xlink="http://www.w3.org/1999/xlink"
	 x="0px" y="0px" viewBox="-49 141 512 512" xml:space="preserve">
<g>
	<g>
		<path fill="#ffffff" d="M206.3,256c-15.3,0-27.7,12.4-27.7,27.7c0,15.3,12.4,27.7,27.7,27.7c15.3,0,27.7-12.4,27.7-27.7
			C234,268.5,221.6,256,206.3,256z M206.3,296.2c-6.9,0-12.5-5.6-12.5-12.5s5.6-12.5,12.5-12.5s12.5,5.6,12.5,12.5
			S213.2,296.2,206.3,296.2z"/>
	</g>
</g>
<g>
	<g>
		<path fill="#ffffff" d="M221.9,171.6c4.2,0,7.6-3.4,7.6-7.6v-13.2c0-4.2-3.4-7.6-7.6-7.6h-31.1c-4.2,0-7.6,3.4-7.6,7.6v54.7
			c0,4.2,3.4,7.6,7.6,7.6h31.1c4.2,0,7.6-3.4,7.6-7.6v-9.1c0-4.2-3.4-7.6-7.6-7.6s-7.6,3.4-7.6,7.6v1.5h-15.9v-39.5h15.9v5.6
			C214.3,168.2,217.7,171.6,221.9,171.6z"/>
	</g>
</g>
<g>
	<g>
		<path fill="#ffffff" d="M121.5,435.5H67.1v-9.2h54.4c4.2,0,7.6-3.4,7.6-7.6s-3.4-7.6-7.6-7.6h-62c-4.2,0-7.6,3.4-7.6,7.6v24.4
			c0,4.2,3.4,7.6,7.6,7.6h62c4.2,0,7.6-3.4,7.6-7.6S125.7,435.5,121.5,435.5z"/>
	</g>
</g>
<g>
	<g>
		<path fill="#ffffff" d="M359.2,411.1h-62c-4.2,0-7.6,3.4-7.6,7.6s3.4,7.6,7.6,7.6h54.4v9.2h-54.4c-4.2,0-7.6,3.4-7.6,7.6
			s3.4,7.6,7.6,7.6h62c4.2,0,7.6-3.4,7.6-7.6v-24.4C366.8,414.5,363.4,411.1,359.2,411.1z"/>
	</g>
</g>
<g>
	<g>
		<path fill="#ffffff" d="M219.5,395.6h-21c-4.2,0-7.6,3.4-7.6,7.6v55.4c0,4.2,3.4,7.6,7.6,7.6h21c4.2,0,7.6-3.4,7.6-7.6v-55.4
			C227.1,399,223.7,395.6,219.5,395.6z M211.9,451h-5.8v-40.2h5.8V451z"/>
	</g>
</g>
<g>
	<g>
		<path fill="#ffffff" d="M328.2,588.4H11.8V458.3c0-4.2-3.4-7.6-7.6-7.6c-21,0-38-17-38-38v-92.3c0-1.4,1.1-2.5,2.5-2.5h80.9
			c4.2,0,7.6-3.4,7.6-7.6s-3.4-7.6-7.6-7.6h-80.9c-9.8,0-17.7,8-17.7,17.7v92.3V596v1.6c0,29.3,23.9,53.2,53.2,53.2
			c4.2,0,7.6-3.4,7.6-7.6v-39.6h316.4c4.2,0,7.6-3.4,7.6-7.6C335.8,591.8,332.4,588.4,328.2,588.4z M-3.4,634.8
			c-17.3-3.5-30.4-18.9-30.4-37.2V596V449.9c8,8.2,18.6,13.8,30.4,15.5V634.8z"/>
	</g>
</g>
<g>
	<g>
		<path fill="#ffffff" d="M409.8,215c-4.2,0-7.6,3.4-7.6,7.6v80H273.5c1.7-6,2.6-12.3,2.6-18.9c0-38.5-31.3-69.8-69.8-69.8
			s-69.8,31.3-69.8,69.8c0,6.5,0.9,12.9,2.6,18.9H87.5c-4.2,0-7.6,3.4-7.6,7.6s3.4,7.6,7.6,7.6h57.9c2.4,4.2,5.2,8.2,8.3,11.8
			l-33.1,168.5c-4.1,20.7,5.2,41.3,22.8,52.1l-2.2,13.2c-0.7,4.1,2.1,8.1,6.2,8.8c0.4,0.1,0.9,0.1,1.3,0.1c3.6,0,6.9-2.6,7.5-6.3
			l3.1-18.4L197.7,353c2.8,0.3,5.7,0.5,8.6,0.5c4.7,0,9.4-0.5,13.8-1.4l38.6,195.5c0.2,1,0.6,2,1.2,2.8l2.6,15.5
			c0.6,3.7,3.8,6.3,7.5,6.3c0.4,0,0.8,0,1.3-0.1c4.1-0.7,6.9-4.6,6.2-8.8l-2.3-13.6c17.2-10.9,26.1-31.3,22.1-51.7l-34.6-173.4
			c1.6-2.2,3.1-4.5,4.4-6.9h135v89.7c0,4.2,3.4,7.6,7.6,7.6c21,0,38,17,38,38v132.8c0,1.4-1.1,2.5-2.5,2.5h-75.2
			c-4.2,0-7.6,3.4-7.6,7.6s3.4,7.6,7.6,7.6h75.2c9.8,0,17.7-8,17.7-17.7V453.1V310.2v-42C463,238.9,439.1,215,409.8,215z
			 M146.5,533.7c-9-8-13.4-20.3-11-32.7l31.4-159.7c4.9,3.4,10.3,6.1,16,8.2L146.5,533.7z M206.3,338.3c-30.1,0-54.6-24.5-54.6-54.6
			c0-30.1,24.5-54.6,54.6-54.6c30.1,0,54.6,24.5,54.6,54.6C260.9,313.8,236.4,338.3,206.3,338.3z M282.5,501
			c2.4,12.3-1.9,24.7-11,32.7l-36.8-186.2c5.5-2.5,10.6-5.6,15.3-9.4L282.5,501z M447.8,310.2v105.7c-8-8.2-18.6-13.8-30.4-15.5
			V230.9c17.3,3.5,30.4,18.9,30.4,37.2V310.2z"/>
	</g>
</g>
</svg>